<svg xmlns="http://www.w3.org/2000/svg" xmlns:xlink="http://www.w3.org/1999/xlink" version="1.1" width="250" height="50" viewBox="0 0 250 50" xml:space="preserve">
<desc>Created with Fabric.js 3.5.0</desc>
<defs>
</defs>
<rect x="0" y="0" width="100%" height="100%" fill="#fff"/>
<g transform="matrix(1 0 0 1 146.4074 25)" style="" id="188072">
		
<path xml:space="preserve" font-family="Ubuntu" font-size="25" font-style="normal" font-weight="bold" style="stroke: none; stroke-width: 1; stroke-dasharray: none; stroke-linecap: butt; stroke-dashoffset: 0; stroke-linejoin: miter; stroke-miterlimit: 4; is-custom-font: none; font-file-url: none; fill: rgb(0,0,0); fill-rule: nonzero; opacity: 1; white-space: pre;" d="M-82.99-9.67L-82.99-9.67Q-79.11-9.67-77.04-8.31Q-74.96-6.95-74.96-3.85L-74.96-3.85Q-74.96-0.72-77.06 0.67Q-79.16 2.05-83.06 2.05L-83.06 2.05L-84.29 2.05L-84.29 7.85L-88.19 7.85L-88.19-9.22Q-86.91-9.47-85.49-9.57Q-84.06-9.67-82.99-9.67ZM-82.74-6.35L-82.74-6.35Q-83.16-6.35-83.58-6.32Q-83.99-6.30-84.29-6.27L-84.29-6.27L-84.29-1.27L-83.06-1.27Q-81.04-1.27-80.01-1.82Q-78.99-2.37-78.99-3.87L-78.99-3.87Q-78.99-4.60-79.25-5.07Q-79.51-5.55-80-5.83Q-80.49-6.12-81.19-6.23Q-81.89-6.35-82.74-6.35ZM-59.81 7.85L-72.09 7.85L-72.09-9.47L-60.39-9.47L-60.39-6.20L-68.19-6.20L-68.19-2.80L-61.26-2.80L-61.26 0.40L-68.19 0.40L-68.19 4.58L-59.81 4.58L-59.81 7.85ZM-48.49-6.47L-48.49-6.47Q-51.21-6.47-52.43-4.96Q-53.64-3.45-53.64-0.82L-53.64-0.82Q-53.64 0.45-53.34 1.49Q-53.04 2.53-52.44 3.28Q-51.84 4.03-50.94 4.44Q-50.04 4.85-48.84 4.85L-48.84 4.85Q-48.19 4.85-47.73 4.83Q-47.26 4.80-46.91 4.73L-46.91 4.73L-46.91-1.30L-43.01-1.30L-43.01 7.28Q-43.71 7.55-45.26 7.87Q-46.81 8.18-49.09 8.18L-49.09 8.18Q-51.04 8.18-52.63 7.58Q-54.21 6.98-55.34 5.83Q-56.46 4.68-57.08 3.00Q-57.69 1.33-57.69-0.82L-57.69-0.82Q-57.69-3.00-57.01-4.67Q-56.34-6.35-55.16-7.51Q-53.99-8.67-52.40-9.27Q-50.81-9.87-49.01-9.87L-49.01-9.87Q-47.79-9.87-46.80-9.71Q-45.81-9.55-45.10-9.33Q-44.39-9.12-43.93-8.90Q-43.46-8.67-43.26-8.55L-43.26-8.55L-44.39-5.42Q-45.19-5.85-46.23-6.16Q-47.26-6.47-48.49-6.47ZM-28.66 4.88L-28.66 4.88Q-27.84 4.88-27.30 4.74Q-26.76 4.60-26.44 4.37Q-26.11 4.13-25.99 3.80Q-25.86 3.48-25.86 3.08L-25.86 3.08Q-25.86 2.23-26.66 1.67Q-27.46 1.10-29.41 0.45L-29.41 0.45Q-30.26 0.15-31.11-0.23Q-31.96-0.62-32.64-1.21Q-33.31-1.80-33.74-2.63Q-34.16-3.47-34.16-4.67L-34.16-4.67Q-34.16-5.87-33.71-6.83Q-33.26-7.80-32.44-8.47Q-31.61-9.15-30.44-9.51Q-29.26-9.87-27.79-9.87L-27.79-9.87Q-26.04-9.87-24.76-9.50Q-23.49-9.12-22.66-8.67L-22.66-8.67L-23.79-5.60Q-24.51-5.97-25.40-6.26Q-26.29-6.55-27.54-6.55L-27.54-6.55Q-28.94-6.55-29.55-6.16Q-30.16-5.77-30.16-4.97L-30.16-4.97Q-30.16-4.50-29.94-4.17Q-29.71-3.85-29.30-3.58Q-28.89-3.32-28.35-3.11Q-27.81-2.90-27.16-2.67L-27.16-2.67Q-25.81-2.17-24.81-1.68Q-23.81-1.20-23.15-0.55Q-22.49 0.10-22.16 0.98Q-21.84 1.85-21.84 3.10L-21.84 3.10Q-21.84 5.53-23.54 6.87Q-25.24 8.20-28.66 8.20L-28.66 8.20Q-29.81 8.20-30.74 8.07Q-31.66 7.93-32.38 7.73Q-33.09 7.53-33.60 7.30Q-34.11 7.08-34.46 6.88L-34.46 6.88L-33.36 3.78Q-32.59 4.20-31.45 4.54Q-30.31 4.88-28.66 4.88ZM-19.21 2.48L-19.21-8.57L-15.49-9.17L-15.49-5.30L-11.01-5.30L-11.01-2.20L-15.49-2.20L-15.49 2.43Q-15.49 3.60-15.08 4.30Q-14.66 5.00-13.41 5.00L-13.41 5.00Q-12.81 5.00-12.18 4.89Q-11.54 4.78-11.01 4.58L-11.01 4.58L-10.49 7.48Q-11.16 7.75-11.99 7.95Q-12.81 8.15-14.01 8.15L-14.01 8.15Q-15.54 8.15-16.54 7.74Q-17.54 7.33-18.14 6.59Q-18.74 5.85-18.98 4.80Q-19.21 3.75-19.21 2.48L-19.21 2.48ZM-3.46 5.25L-3.46 5.25Q-2.91 5.25-2.41 5.23Q-1.91 5.20-1.61 5.15L-1.61 5.15L-1.61 2.33Q-1.84 2.28-2.29 2.23Q-2.74 2.18-3.11 2.18L-3.11 2.18Q-3.64 2.18-4.10 2.24Q-4.56 2.30-4.91 2.48Q-5.26 2.65-5.46 2.95Q-5.66 3.25-5.66 3.70L-5.66 3.70Q-5.66 4.58-5.08 4.92Q-4.49 5.25-3.46 5.25ZM-3.76-5.65L-3.76-5.65Q-2.11-5.65-1.01-5.27Q0.09-4.90 0.75-4.20Q1.41-3.50 1.69-2.50Q1.96-1.50 1.96-0.27L1.96-0.27L1.96 7.48Q1.16 7.65-0.26 7.89Q-1.69 8.13-3.71 8.13L-3.71 8.13Q-4.99 8.13-6.03 7.90Q-7.06 7.68-7.81 7.17Q-8.56 6.65-8.96 5.83Q-9.36 5.00-9.36 3.80L-9.36 3.80Q-9.36 2.65-8.90 1.85Q-8.44 1.05-7.66 0.58Q-6.89 0.10-5.89-0.11Q-4.89-0.32-3.81-0.32L-3.81-0.32Q-3.09-0.32-2.53-0.26Q-1.96-0.20-1.61-0.10L-1.61-0.10L-1.61-0.45Q-1.61-1.40-2.19-1.97Q-2.76-2.55-4.19-2.55L-4.19-2.55Q-5.14-2.55-6.06-2.41Q-6.99-2.27-7.66-2.02L-7.66-2.02L-8.14-5.02Q-7.81-5.12-7.33-5.23Q-6.84-5.35-6.26-5.43Q-5.69-5.52-5.05-5.58Q-4.41-5.65-3.76-5.65ZM13.76 1.18L13.76 1.18Q13.76-2.42 11.11-2.42L11.11-2.42Q10.54-2.42 9.98-2.27Q9.41-2.12 9.06-1.90L9.06-1.90L9.06 4.88Q9.34 4.93 9.76 4.97Q10.19 5.00 10.69 5.00L10.69 5.00Q12.21 5.00 12.99 3.95Q13.76 2.90 13.76 1.18ZM17.56 1.28L17.56 1.28Q17.56 2.85 17.10 4.13Q16.64 5.40 15.76 6.30Q14.89 7.20 13.61 7.69Q12.34 8.18 10.71 8.18L10.71 8.18Q10.04 8.18 9.30 8.12Q8.56 8.05 7.85 7.95Q7.14 7.85 6.49 7.72Q5.84 7.58 5.34 7.43L5.34 7.43L5.34-10.95L9.06-11.55L9.06-5.00Q9.69-5.27 10.36-5.42Q11.04-5.57 11.81-5.57L11.81-5.57Q13.21-5.57 14.29-5.08Q15.36-4.60 16.09-3.70Q16.81-2.80 17.19-1.53Q17.56-0.27 17.56 1.28ZM26.21 5.03L25.69 8.10Q24.06 8.08 23.05 7.75Q22.04 7.43 21.45 6.84Q20.86 6.25 20.65 5.42Q20.44 4.58 20.44 3.53L20.44 3.53L20.44-10.95L24.16-11.55L24.16 2.78Q24.16 3.28 24.24 3.68Q24.31 4.08 24.52 4.35Q24.74 4.63 25.14 4.80Q25.54 4.98 26.21 5.03L26.21 5.03ZM27.71 1.38L27.71 1.38Q27.71-0.37 28.25-1.68Q28.79-3.00 29.66-3.87Q30.54-4.75 31.67-5.20Q32.81-5.65 34.01-5.65L34.01-5.65Q36.81-5.65 38.44-3.93Q40.06-2.22 40.06 1.10L40.06 1.10Q40.06 1.43 40.04 1.82Q40.01 2.20 39.99 2.50L39.99 2.50L31.54 2.50Q31.66 3.65 32.61 4.33Q33.56 5.00 35.16 5.00L35.16 5.00Q36.19 5.00 37.17 4.82Q38.16 4.63 38.79 4.35L38.79 4.35L39.29 7.38Q38.99 7.53 38.49 7.68Q37.99 7.83 37.38 7.94Q36.76 8.05 36.06 8.13Q35.36 8.20 34.66 8.20L34.66 8.20Q32.89 8.20 31.57 7.68Q30.26 7.15 29.40 6.24Q28.54 5.33 28.13 4.08Q27.71 2.83 27.71 1.38ZM31.54-0.05L36.46-0.05Q36.44-0.52 36.30-0.97Q36.16-1.42 35.88-1.77Q35.59-2.12 35.15-2.35Q34.71-2.57 34.06-2.57L34.06-2.57Q33.44-2.57 32.99-2.36Q32.54-2.15 32.24-1.80Q31.94-1.45 31.77-0.98Q31.61-0.52 31.54-0.05L31.54-0.05ZM42.31 1.28L42.31 1.28Q42.31-0.15 42.77-1.41Q43.24-2.67 44.11-3.61Q44.99-4.55 46.24-5.10Q47.49-5.65 49.09-5.65L49.09-5.65Q50.14-5.65 51.01-5.46Q51.89-5.27 52.71-4.92L52.71-4.92L51.94-1.95Q51.41-2.15 50.79-2.30Q50.16-2.45 49.39-2.45L49.39-2.45Q47.74-2.45 46.92-1.42Q46.11-0.40 46.11 1.28L46.11 1.28Q46.11 3.05 46.88 4.03Q47.64 5.00 49.54 5.00L49.54 5.00Q50.21 5.00 50.99 4.88Q51.76 4.75 52.41 4.48L52.41 4.48L52.94 7.53Q52.29 7.80 51.31 8.00Q50.34 8.20 49.16 8.20L49.16 8.20Q47.36 8.20 46.06 7.67Q44.76 7.13 43.92 6.20Q43.09 5.28 42.70 4.02Q42.31 2.75 42.31 1.28ZM67.11 1.25L67.11 1.25Q67.11 2.80 66.66 4.09Q66.21 5.38 65.36 6.29Q64.51 7.20 63.33 7.70Q62.14 8.20 60.66 8.20L60.66 8.20Q59.21 8.20 58.02 7.70Q56.84 7.20 55.99 6.29Q55.14 5.38 54.66 4.09Q54.19 2.80 54.19 1.25L54.19 1.25Q54.19-0.30 54.67-1.57Q55.16-2.85 56.02-3.75Q56.89-4.65 58.08-5.15Q59.26-5.65 60.66-5.65L60.66-5.65Q62.09-5.65 63.27-5.15Q64.46-4.65 65.31-3.75Q66.16-2.85 66.64-1.57Q67.11-0.30 67.11 1.25ZM63.31 1.25L63.31 1.25Q63.31-0.47 62.63-1.46Q61.94-2.45 60.66-2.45L60.66-2.45Q59.39-2.45 58.69-1.46Q57.99-0.47 57.99 1.25L57.99 1.25Q57.99 2.98 58.69 3.99Q59.39 5.00 60.66 5.00L60.66 5.00Q61.94 5.00 62.63 3.99Q63.31 2.98 63.31 1.25ZM73.71-5.30L73.71 7.85L69.99 7.85L69.99-5.30L73.71-5.30ZM74.06-9.10L74.06-9.10Q74.06-8.07 73.40-7.48Q72.74-6.90 71.84-6.90L71.84-6.90Q70.94-6.90 70.27-7.48Q69.61-8.07 69.61-9.10L69.61-9.10Q69.61-10.12 70.27-10.71Q70.94-11.30 71.84-11.30L71.84-11.30Q72.74-11.30 73.40-10.71Q74.06-10.12 74.06-9.10ZM77.21 7.85L77.21-4.85Q78.16-5.12 79.66-5.36Q81.16-5.60 82.81-5.60L82.81-5.60Q84.49-5.60 85.60-5.16Q86.71-4.72 87.36-3.92Q88.01-3.12 88.29-2.02Q88.56-0.92 88.56 0.43L88.56 0.43L88.56 7.85L84.84 7.85L84.84 0.88Q84.84-0.92 84.36-1.67Q83.89-2.42 82.59-2.42L82.59-2.42Q82.19-2.42 81.74-2.38Q81.29-2.35 80.94-2.30L80.94-2.30L80.94 7.85L77.21 7.85Z"/></g>
<g transform="matrix(0.1039 0 0 0.1039 31.6717 25.0061)" id="597936">
<path style="stroke: none; stroke-width: 1; stroke-dasharray: none; stroke-linecap: butt; stroke-dashoffset: 0; stroke-linejoin: miter; stroke-miterlimit: 4; is-custom-font: none; font-file-url: none; fill: rgb(0,0,0); fill-rule: nonzero; opacity: 1;" vector-effect="non-scaling-stroke" transform=" translate(-168.4899, -168.49)" d="M 307.369 58.537 L 168.49 0 L 29.611 58.537 C 13.901 278.632 168.49 336.98 168.49 336.98 S 323.078 278.632 307.369 58.537 z M 181.728 229.292 v 10.554 c 0 2.682 -2.173 4.855 -4.856 4.855 h -19.42 c -2.682 0 -4.856 -2.174 -4.856 -4.855 v -11.082 c -12.784 -2.938 -24.559 -9.405 -32.776 -18.089 c -1.842 -1.948 -1.758 -5.021 0.189 -6.864 l 14.108 -13.348 c 0.936 -0.886 2.186 -1.36 3.471 -1.326 c 1.286 0.035 2.507 0.581 3.393 1.517 c 5.987 6.329 17.025 10.748 26.846 10.748 c 7.997 0 21.532 -2.188 21.532 -10.389 c 0.061 -7.419 -3.906 -10.116 -23.592 -16.078 c -18.298 -5.541 -45.947 -13.915 -45.947 -46.138 c 0 -18.367 12.45 -32.66 32.776 -38.028 V 79.135 c 0 -2.682 2.175 -4.855 4.856 -4.855 h 19.42 c 2.684 0 4.856 2.174 4.856 4.855 V 89.18 c 10.581 1.464 20.811 5.047 28.604 10.083 c 2.252 1.455 2.897 4.461 1.442 6.713 l -10.539 16.313 c -1.456 2.252 -4.459 2.898 -6.713 1.443 c -5.605 -3.622 -15.077 -6.152 -23.035 -6.152 c -8.37 0 -22.536 2.363 -22.536 11.217 c 0 8.723 4.486 11.965 25.261 18.256 c 17.734 5.371 44.533 13.487 44.277 44.081 C 218.49 210.44 204.208 225.092 181.728 229.292 z" stroke-linecap="round"/>
</g>
</svg>